﻿<?xml version="1.0" encoding="utf-8"?>
<svg version="1.1" xmlns:xlink="http://www.w3.org/1999/xlink" width="170px" height="170px" xmlns="http://www.w3.org/2000/svg">
  <g transform="matrix(1 0 0 1 -295 -435 )">
    <path d="M 380 437  C 426.48 437  463 473.52  463 520  C 463 566.48  426.48 603  380 603  C 333.52 603  297 566.48  297 520  C 297 473.52  333.52 437  380 437  Z " fill-rule="nonzero" fill="#ffffff" stroke="none" fill-opacity="0" />
    <path d="M 380 436.5  C 426.76 436.5  463.5 473.24  463.5 520  C 463.5 566.76  426.76 603.5  380 603.5  C 333.24 603.5  296.5 566.76  296.5 520  C 296.5 473.24  333.24 436.5  380 436.5  Z " stroke-width="3" stroke="#9c27b0" fill="none" />
  </g>
</svg>