﻿<?xml version="1.0" encoding="utf-8"?>
<svg version="1.1" xmlns:xlink="http://www.w3.org/1999/xlink" width="5px" height="130px" xmlns="http://www.w3.org/2000/svg">
  <g transform="matrix(1 0 0 1 -698 -263 )">
    <path d="M 700 264  L 700 391  " stroke-width="2" stroke="#ffffff" fill="none" />
  </g>
</svg>