﻿<?xml version="1.0" encoding="utf-8"?>
<svg version="1.1" xmlns:xlink="http://www.w3.org/1999/xlink" width="500px" height="22px" xmlns="http://www.w3.org/2000/svg">
  <g>
    <path d="M 0 0  L 499 0  L 499 21  L 0 21  L 0 0  Z " fill-rule="nonzero" fill="#ffffff" stroke="none" fill-opacity="0" />
  </g>
</svg>